key,value
seed,42
num_workers,12
log_level,1
dataset_path,dataset/MOSES_dataset_v1_train.smi
validity_masks_from_model,False
no_validity_masks,False
batch_size,32
hidden_size,512
no_length_normalization,False
lr,0.001
no_batchnorm,False
dropout_prob,0
graph_relevancy,0
property_relevancy,0
edge_step_relevancy,0
gen_max_nodes,29
gen_temperature,1
conditioning,"['logp', 'molw']"
logger,True
checkpoint_callback,True
early_stop_callback,False
default_save_path,None
gradient_clip_val,0
process_position,0
num_nodes,1
gpus,0
num_tpu_cores,None
log_gpu_memory,None
progress_bar_refresh_rate,1
overfit_pct,0.0
track_grad_norm,-1
check_val_every_n_epoch,1
fast_dev_run,False
accumulate_grad_batches,1
max_epochs,1000
min_epochs,1
max_steps,None
min_steps,None
train_percent_check,1.0
val_percent_check,1.0
test_percent_check,1.0
val_check_interval,0.25
log_save_interval,100
row_log_interval,100
distributed_backend,None
precision,32
print_nan_grads,False
weights_summary,full
weights_save_path,None
amp_level,O1
num_sanity_val_steps,5
truncated_bptt_steps,None
resume_from_checkpoint,None
benchmark,False
reload_dataloaders_every_epoch,False
